Cross-Validation Schemes • rMVPA
…
## cross-validation: bootstrap blocked 
##   n observations:  500  n bootstrap reps:  20 
##   block sizes:  100 100 100 100 100

Now we create a set of new resamples. But this time instead of 5 resamples (one for each block), we have 100 resamples (20 for each block). Each block is used as a test set 20 times and for each of those 20 resamples, the training data is sampled with replacement from the remaining runs.

dat <- data.frame(x1=rnorm(500), x2=rnorm(500), x3=rnorm(500))
y <- rep(letters[1:5], length.out=500)
sam <- crossval_samples(cval, dat,y)
sam

## # A tibble: 100 x 5
##    ytrain      ytest       train          test           .id  
##    <list>      <list>      <list>         <list>         <chr>
##  1 <chr [258]> <chr [400]> <S3: resample> <S3: resample> 001  
##  2 <chr [256]> <chr [400]> <S3: resample> <S3: resample> 002  
##  3 <chr [255]> <chr [400]> <S3: resample> <S3: resample> 003  
##  4 <chr [264]> <chr [400]> <S3: resample> <S3: resample> 004  
##  5 <chr [266]> <chr [400]> <S3: resample> <S3: resample> 005  
##  6 <chr [257]> <chr [400]> <S3: resample> <S3: resample> 006  
##  7 <chr [250]> <chr [400]> <S3: resample> <S3: resample> 007  
##  8 <chr [252]> <chr [400]> <S3: resample> <S3: resample> 008  
##  9 <chr [240]> <chr [400]> <S3: resample> <S3: resample> 009  
## 10 <chr [246]> <chr [400]> <S3: resample> <S3: resample> 010  
## # … with 90 more rows
…
