Regional Analysis • rMVPA
…
print(res$performance_table)

## # A tibble: 3 x 3
##   roinum Accuracy     AUC
##    <int>    <dbl>   <dbl>
## 1      1    0.5   -0.0394
## 2      2    0.6    0.128 
## 3      3    0.475 -0.0288

To get fine-grained information, the individual predictions for each ROI and trial are included in prediction_table:

print(res$prediction_table)

## # A tibble: 240 x 8
## # Rowwise: 
##    .rownum roinum observed pobserved predicted correct   prob_a  prob_b
##      <int>  <int> <fct>        <dbl> <chr>     <lgl>      <dbl>   <dbl>
##  1       1      1 b         0.828    b         TRUE    0.172    0.828  
##  2       2      1 a         0.149    b         FALSE   0.149    0.851  
##  3       3      1 b         0.925    b         TRUE    0.0750   0.925  
##  4       4      1 a         0.000263 b         FALSE   0.000263 1.00   
##  5       5      1 b         0.931    b         TRUE    0.0687   0.931  
##  6       6      1 b         0.862    b         TRUE    0.138    0.862  
##  7       7      1 a         0.121    b         FALSE   0.121    0.879  
##  8       8      1 b         0.858    b         TRUE    0.142    0.858  
##  9       9      1 a         0.996    a         TRUE    0.996    0.00402
## 10      10      1 b         0.532    b         TRUE    0.468    0.532  
## # … with 230 more rows
…
