…
``` r
# Generate samples
boot_samples <- crossval_samples(boot_cval, dat, y)
print(boot_samples)
```

    ## # A tibble: 100 × 5
    ##    ytrain     ytest      train               test                .id  
    ##    <list>     <list>     <list>              <list>              <chr>
    ##  1 <fct [80]> <fct [20]> <resample [80 x 3]> <resample [20 x 3]> 001  
    ##  2 <fct [80]> <fct [20]> <resample [80 x 3]> <resample [20 x 3]> 002  
    ##  3 <fct [80]> <fct [20]> <resample [80 x 3]> <resample [20 x 3]> 003  
    ##  4 <fct [80]> <fct [20]> <resample [80 x 3]> <resample [20 x 3]> 004  
    ##  5 <fct [80]> <fct [20]> <resample [80 x 3]> <resample [20 x 3]> 005  
    ##  6 <fct [80]> <fct [20]> <resample [80 x 3]> <resample [20 x 3]> 006  
    ##  7 <fct [80]> <fct [20]> <resample [80 x 3]> <resample [20 x 3]> 007  
    ##  8 <fct [80]> <fct [20]> <resample [80 x 3]> <resample [20 x 3]> 008  
    ##  9 <fct [80]> <fct [20]> <resample [80 x 3]> <resample [20 x 3]> 009  
    ## 10 <fct [80]> <fct [20]> <resample [80 x 3]> <resample [20 x 3]> 010  
    ## # ℹ 90 more rows
…
