Regional Analysis • rMVPA
…
print(res$performance_table)

## # A tibble: 3 × 3
##   roinum Accuracy      AUC
##    <int>    <dbl>    <dbl>
## 1      1    0.512 -0.0438 
## 2      2    0.462 -0.0531 
## 3      3    0.538  0.00250

To get fine-grained information, the individual predictions for each
ROI and trial are included in prediction_table:

print(res$prediction_table)

## # A tibble: 240 × 8
## # Rowwise: 
##    .rownum roinum observed pobserved predicted correct  prob_a  prob_b
##      <int>  <int> <fct>        <dbl> <chr>     <lgl>     <dbl>   <dbl>
##  1       1      1 a          0.143   b         FALSE   0.143   0.857  
##  2       2      1 a          0.453   b         FALSE   0.453   0.547  
##  3       3      1 b          0.634   b         TRUE    0.366   0.634  
##  4       4      1 b          0.994   b         TRUE    0.00625 0.994  
##  5       5      1 b          0.00113 a         FALSE   0.999   0.00113
##  6       6      1 a          0.673   a         TRUE    0.673   0.327  
##  7       7      1 b          0.0720  a         FALSE   0.928   0.0720 
##  8       8      1 b          0.0814  a         FALSE   0.919   0.0814 
##  9       9      1 b          0.817   b         TRUE    0.183   0.817  
## 10      10      1 a          0.935   a         TRUE    0.935   0.0650 
## # ℹ 230 more rows
…
