…
For a more detailed view, the prediction table shows trial-by-trial
predictions:

``` r
# Display the prediction table
print(regional_results$prediction_table)
#> # A tibble: 240 × 8
#> # Rowwise: 
#>    .rownum roinum observed pobserved predicted correct prob_a  prob_b
#>      <int>  <int> <fct>        <dbl> <fct>     <lgl>    <dbl>   <dbl>
#>  1       1      1 b           0.872  b         TRUE    0.128  0.872  
#>  2       2      1 a           0.961  a         TRUE    0.961  0.0393 
#>  3       3      1 a           0.996  a         TRUE    0.996  0.00371
#>  4       4      1 b           0.983  b         TRUE    0.0166 0.983  
#>  5       5      1 b           0.0243 a         FALSE   0.976  0.0243 
#>  6       6      1 a           0.805  a         TRUE    0.805  0.195  
#>  7       7      1 b           0.799  b         TRUE    0.201  0.799  
#>  8       8      1 a           0.0667 b         FALSE   0.0667 0.933  
#>  9       9      1 a           0.999  a         TRUE    0.999  0.00124
#> 10      10      1 a           0.554  a         TRUE    0.554  0.446  
#> # ℹ 230 more rows
```
…
